…
<div id='id4' />

# 4\. Filtros

``` r
fumadores <- base[base$FUMA == 1, ] # Fumadores
fumadores
```

    ## # A tibble: 593 x 17
    ##    IDENT GENERO  EDAD  FUMA DIABETES ULCERA   HTA   PAS   PAD COLTOT TRIGLIC
    ##    <dbl> <chr>  <dbl> <dbl>    <dbl>  <dbl> <dbl> <dbl> <dbl>  <dbl>   <dbl>
    ##  1     1 Hombre    46     1        0      0     0   100    70    180      61
    ##  2     2 Hombre    26     1        0      0     0   110    70    174     113
    ##  3     3 Hombre    25     1        0      0     0   100    60    129      60
    ##  4     4 Hombre    45     1        0      0     0   100    70    265     308
    ##  5     6 Hombre    49     1        0      0     0   160    90    191      63
    ##  6     7 Hombre    43     1        0      0     0   120    70    234      81
    ##  7     8 Hombre    20     1        0      0     0   110    70    167     175
    ##  8    12 Hombre    25     1        0      0     0   120    60    163      48
    ##  9    13 Hombre    25     1        0      0     0   100    60    120     109
    ## 10    14 Hombre    47     1        0      1     0   130    80    197      55
    ## # ... with 583 more rows, and 6 more variables: COLHDL <dbl>, PESO <dbl>,
    ## #   TALLA <dbl>, LITIASIS <chr>, Exam-Enf (litiasis) <chr>, ...17 <chr>

``` r
menores_de_35 <- base[base$EDAD <= 35, ] # Personas menores o iguales a 35 años
menores_de_35
```

    ## # A tibble: 449 x 17
    ##    IDENT GENERO  EDAD  FUMA DIABETES ULCERA   HTA   PAS   PAD COLTOT TRIGLIC
    ##    <dbl> <chr>  <dbl> <dbl>    <dbl>  <dbl> <dbl> <dbl> <dbl>  <dbl>   <dbl>
    ##  1     2 Hombre    26     1        0      0     0   110    70    174     113
    ##  2     3 Hombre    25     1        0      0     0   100    60    129      60
    ##  3     5 Hombre    25     0        0      0     0   130    80    143     100
    ##  4     8 Hombre    20     1        0      0     0   110    70    167     175
    ##  5    11 Hombre    23     0        0      0     0   130    80    167      91
    ##  6    12 Hombre    25     1        0      0     0   120    60    163      48
    ##  7    13 Hombre    25     1        0      0     0   100    60    120     109
    ##  8    15 Hombre    20     1        0      0     0   120    70    118      46
    ##  9    18 Hombre    22     0        0      0     0   110    70    125      35
    ## 10    24 Hombre    22     1        0      0     0   140    80    163      66
    ## # ... with 439 more rows, and 6 more variables: COLHDL <dbl>, PESO <dbl>,
    ## #   TALLA <dbl>, LITIASIS <chr>, Exam-Enf (litiasis) <chr>, ...17 <chr>
…
